\BOOKMARK [1][-]{section.1}{Introduction}{}% 1
\BOOKMARK [1][-]{section.2}{Nonstationary Processor Sharing Queue}{}% 2
\BOOKMARK [2][-]{subsection.2.1}{The Model}{section.2}% 3
\BOOKMARK [2][-]{subsection.2.2}{Arrival Process}{section.2}% 4
\BOOKMARK [2][-]{subsection.2.3}{Service Times}{section.2}% 5
\BOOKMARK [1][-]{section.3}{The Service-Rate Controls}{}% 6
\BOOKMARK [2][-]{subsection.3.1}{The Rate-Matching Control}{section.3}% 7
\BOOKMARK [2][-]{subsection.3.2}{The Square-Root Control}{section.3}% 8
\BOOKMARK [2][-]{subsection.3.3}{The PSA-based Square-Root Control}{section.3}% 9
\BOOKMARK [2][-]{subsection.3.4}{The PSA-based Difference Matching Control}{section.3}% 10
\BOOKMARK [1][-]{section.4}{The Experiments}{}% 11
\BOOKMARK [2][-]{subsection.4.1}{Estimation of Performance Measures}{section.4}% 12
\BOOKMARK [2][-]{subsection.4.2}{Algorithm for Discrete Event Simulation}{section.4}% 13
\BOOKMARK [3][-]{subsubsection.4.2.1}{Generating the arrival process}{subsection.4.2}% 14
\BOOKMARK [3][-]{subsubsection.4.2.2}{Calculating the service completion times}{subsection.4.2}% 15
\BOOKMARK [2][-]{subsection.4.3}{The Design of Experiments}{section.4}% 16
\BOOKMARK [1][-]{section.5}{Simulation Results}{}% 17
\BOOKMARK [2][-]{subsection.5.1}{The Rate-Matching Control}{section.5}% 18
\BOOKMARK [2][-]{subsection.5.2}{The Square-Root Control}{section.5}% 19
\BOOKMARK [2][-]{subsection.5.3}{The PSA-Based Square-Root control}{section.5}% 20
\BOOKMARK [1][-]{section.6}{Conclusion}{}% 21
