\relax 
\providecommand\hyper@newdestlabel[2]{}
\providecommand\HyperFirstAtBeginDocument{\AtBeginDocument}
\HyperFirstAtBeginDocument{\ifx\hyper@anchor\@undefined
\global\let\oldcontentsline\contentsline
\gdef\contentsline#1#2#3#4{\oldcontentsline{#1}{#2}{#3}}
\global\let\oldnewlabel\newlabel
\gdef\newlabel#1#2{\newlabelxx{#1}#2}
\gdef\newlabelxx#1#2#3#4#5#6{\oldnewlabel{#1}{{#2}{#3}}}
\AtEndDocument{\ifx\hyper@anchor\@undefined
\let\contentsline\oldcontentsline
\let\newlabel\oldnewlabel
\fi}
\fi}
\global\let\hyper@last\relax 
\gdef\HyperFirstAtBeginDocument#1{#1}
\providecommand\HyField@AuxAddToFields[1]{}
\providecommand\HyField@AuxAddToCoFields[2]{}
\citation{*}
\providecommand \oddpage@label [2]{}
\@writefile{toc}{\contentsline {section}{\numberline {1}Introduction}{1}{section.1}}
\newlabel{sec:intro}{{1}{1}{Introduction}{section.1}{}}
\@writefile{toc}{\contentsline {section}{\numberline {2}Nonstationary Processor Sharing Queue}{1}{section.2}}
\newlabel{sec:system}{{2}{1}{Nonstationary Processor Sharing Queue}{section.2}{}}
\@writefile{toc}{\contentsline {subsection}{\numberline {2.1}The Model}{2}{subsection.2.1}}
\newlabel{subsec:model}{{2.1}{2}{The Model}{subsection.2.1}{}}
\@writefile{toc}{\contentsline {subsection}{\numberline {2.2}Arrival Process}{2}{subsection.2.2}}
\newlabel{subsec:arrival}{{2.2}{2}{Arrival Process}{subsection.2.2}{}}
\@writefile{toc}{\contentsline {subsection}{\numberline {2.3}Service Times}{3}{subsection.2.3}}
\newlabel{subsec:service}{{2.3}{3}{Service Times}{subsection.2.3}{}}
\@writefile{toc}{\contentsline {section}{\numberline {3}The Service-Rate Controls}{3}{section.3}}
\newlabel{sec:controls}{{3}{3}{The Service-Rate Controls}{section.3}{}}
\@writefile{toc}{\contentsline {subsection}{\numberline {3.1}The Rate-Matching Control}{3}{subsection.3.1}}
\newlabel{subsec:rmcontrol}{{3.1}{3}{The Rate-Matching Control}{subsection.3.1}{}}
\@writefile{toc}{\contentsline {subsection}{\numberline {3.2}The Square-Root Control}{4}{subsection.3.2}}
\newlabel{subsec:srcontrol}{{3.2}{4}{The Square-Root Control}{subsection.3.2}{}}
\@writefile{toc}{\contentsline {subsection}{\numberline {3.3}The PSA-based Square-Root Control}{4}{subsection.3.3}}
\newlabel{subsec:psacontrol}{{3.3}{4}{The PSA-based Square-Root Control}{subsection.3.3}{}}
\@writefile{toc}{\contentsline {subsection}{\numberline {3.4}The PSA-based Difference Matching Control}{4}{subsection.3.4}}
\newlabel{subsec:diffcontrol}{{3.4}{4}{The PSA-based Difference Matching Control}{subsection.3.4}{}}
\@writefile{toc}{\contentsline {section}{\numberline {4}The Experiments}{4}{section.4}}
\newlabel{sec:experiments}{{4}{4}{The Experiments}{section.4}{}}
\@writefile{toc}{\contentsline {subsection}{\numberline {4.1}Estimation of Performance Measures}{4}{subsection.4.1}}
\newlabel{subsec:pm}{{4.1}{4}{Estimation of Performance Measures}{subsection.4.1}{}}
\@writefile{toc}{\contentsline {subsection}{\numberline {4.2}Algorithm for Discrete Event Simulation}{5}{subsection.4.2}}
\newlabel{subsec:alg}{{4.2}{5}{Algorithm for Discrete Event Simulation}{subsection.4.2}{}}
\@writefile{toc}{\contentsline {subsubsection}{\numberline {4.2.1}Generating the arrival process}{5}{subsubsection.4.2.1}}
\@writefile{toc}{\contentsline {subsubsection}{\numberline {4.2.2}Calculating the service completion times}{5}{subsubsection.4.2.2}}
\@writefile{toc}{\contentsline {subsection}{\numberline {4.3}The Design of Experiments}{5}{subsection.4.3}}
\newlabel{subsec:doe}{{4.3}{5}{The Design of Experiments}{subsection.4.3}{}}
\@writefile{lot}{\contentsline {table}{\numberline {1}{\ignorespaces Summary of the experimental settings\relax }}{6}{table.caption.1}}
\providecommand*\caption@xref[2]{\@setref\relax\@undefined{#1}}
\newlabel{summary_doe}{{1}{6}{Summary of the experimental settings\relax }{table.caption.1}{}}
\@writefile{toc}{\contentsline {section}{\numberline {5}Simulation Results}{6}{section.5}}
\newlabel{sec:result}{{5}{6}{Simulation Results}{section.5}{}}
\@writefile{toc}{\contentsline {subsection}{\numberline {5.1}The Rate-Matching Control}{6}{subsection.5.1}}
\newlabel{fig:rm_exp_exp_mean_number_wait_0.001}{{1(a)}{7}{Subfigure 1(a)}{subfigure.1.1}{}}
\newlabel{sub@fig:rm_exp_exp_mean_number_wait_0.001}{{(a)}{1(a)}{Subfigure 1(a)\relax }{subfigure.1.1}{}}
\newlabel{fig:rm_exp_exp_mean_number_wait_0.1}{{1(b)}{7}{Subfigure 1(b)}{subfigure.1.2}{}}
\newlabel{sub@fig:rm_exp_exp_mean_number_wait_0.1}{{(b)}{1(b)}{Subfigure 1(b)\relax }{subfigure.1.2}{}}
\newlabel{fig:rm_exp_exp_mean_number_wait_10}{{1(c)}{7}{Subfigure 1(c)}{subfigure.1.3}{}}
\newlabel{sub@fig:rm_exp_exp_mean_number_wait_10}{{(c)}{1(c)}{Subfigure 1(c)\relax }{subfigure.1.3}{}}
\@writefile{lof}{\contentsline {figure}{\numberline {1}{\ignorespaces Comparison of mean number in queue and mean sojourn time between $M_t/M_t/1$ and $M_t/M_t/1/PS$ \relax }}{7}{figure.caption.2}}
\newlabel{fig:rm_markovian_mean_number_wait}{{1}{7}{Comparison of mean number in queue and mean sojourn time between $M_t/M_t/1$ and $M_t/M_t/1/PS$ \relax }{figure.caption.2}{}}
\bibstyle{plainnat}
\bibcite{Anselmi2011}{{1}{}{{}}{{}}}
\newlabel{fig:rm_exp_exp_tail_prob_0.001}{{2(a)}{8}{Subfigure 2(a)}{subfigure.2.1}{}}
\newlabel{sub@fig:rm_exp_exp_tail_prob_0.001}{{(a)}{2(a)}{Subfigure 2(a)\relax }{subfigure.2.1}{}}
\newlabel{fig:rm_exp_exp_tail_prob_0.1}{{2(b)}{8}{Subfigure 2(b)}{subfigure.2.2}{}}
\newlabel{sub@fig:rm_exp_exp_tail_prob_0.1}{{(b)}{2(b)}{Subfigure 2(b)\relax }{subfigure.2.2}{}}
\newlabel{fig:rm_exp_exp_tail_prob_10}{{2(c)}{8}{Subfigure 2(c)}{subfigure.2.3}{}}
\newlabel{sub@fig:rm_exp_exp_tail_prob_10}{{(c)}{2(c)}{Subfigure 2(c)\relax }{subfigure.2.3}{}}
\@writefile{lof}{\contentsline {figure}{\numberline {2}{\ignorespaces Comparison of sojourn time tail probabilities between $M_t/M_t/1$ and $M_t/M_t/1/PS$ \relax }}{8}{figure.caption.3}}
\newlabel{fig:rm_markovian_tail_prob}{{2}{8}{Comparison of sojourn time tail probabilities between $M_t/M_t/1$ and $M_t/M_t/1/PS$ \relax }{figure.caption.3}{}}
\@writefile{toc}{\contentsline {subsection}{\numberline {5.2}The Square-Root Control}{8}{subsection.5.2}}
\@writefile{toc}{\contentsline {subsection}{\numberline {5.3}The PSA-Based Square-Root control}{8}{subsection.5.3}}
\@writefile{toc}{\contentsline {section}{\numberline {6}Conclusion}{8}{section.6}}
\newlabel{sec:con}{{6}{8}{Conclusion}{section.6}{}}
\bibcite{Barroso2009}{{2}{}{{}}{{}}}
\bibcite{Chen2005}{{3}{}{{}}{{}}}
\bibcite{Chen2009}{{4}{}{{}}{{}}}
\bibcite{Ko2014}{{5}{}{{}}{{}}}
\bibcite{Kwon2016}{{6}{}{{}}{{}}}
\providecommand\NAT@force@numbers{}\NAT@force@numbers
\newlabel{sec:ack}{{6}{9}{Acknowledgment}{section*.4}{}}
