\relax 
\providecommand\hyper@newdestlabel[2]{}
\providecommand\HyperFirstAtBeginDocument{\AtBeginDocument}
\HyperFirstAtBeginDocument{\ifx\hyper@anchor\@undefined
\global\let\oldcontentsline\contentsline
\gdef\contentsline#1#2#3#4{\oldcontentsline{#1}{#2}{#3}}
\global\let\oldnewlabel\newlabel
\gdef\newlabel#1#2{\newlabelxx{#1}#2}
\gdef\newlabelxx#1#2#3#4#5#6{\oldnewlabel{#1}{{#2}{#3}}}
\AtEndDocument{\ifx\hyper@anchor\@undefined
\let\contentsline\oldcontentsline
\let\newlabel\oldnewlabel
\fi}
\fi}
\global\let\hyper@last\relax 
\gdef\HyperFirstAtBeginDocument#1{#1}
\providecommand\HyField@AuxAddToFields[1]{}
\providecommand\HyField@AuxAddToCoFields[2]{}
\citation{*}
\citation{io2014}
\citation{Nrdc2014}
\citation{Nrdc2014}
\citation{Barroso2009}
\citation{INTELCERNlab.2008}
\providecommand \oddpage@label [2]{}
\@writefile{toc}{\contentsline {section}{\numberline {1}Introduction}{1}{section.1}}
\newlabel{sec:intro}{{1}{1}{Introduction}{section.1}{}}
\citation{CISCO2007}
\citation{ADSC2011}
\citation{Hillier2014}
\citation{Kramer2012}
\citation{AMD1995}
\citation{WOL2002}
\citation{INTEL2012}
\citation{Anselmi2011}
\citation{Chen2005}
\citation{Horvath2007}
\citation{SNOW2010}
\citation{Ko2014}
\citation{Kwon2016}
\@writefile{toc}{\contentsline {subsection}{\numberline {1.1}Related studies}{2}{subsection.1.1}}
\citation{Urgaonkar2007}
\citation{Bertini2008}
\citation{Arrubla2013}
\citation{Dai2015}
\citation{Arrubla2013}
\@writefile{lot}{\contentsline {table}{\numberline {1}{\ignorespaces CPU operating states and power consumption (Intel Pentium M 1.6 GHz)\relax }}{3}{table.caption.1}}
\providecommand*\caption@xref[2]{\@setref\relax\@undefined{#1}}
\newlabel{table:pstate}{{1}{3}{CPU operating states and power consumption (Intel Pentium M 1.6 GHz)\relax }{table.caption.1}{}}
\@writefile{toc}{\contentsline {subsection}{\numberline {1.2}Motivation and contribution of this study}{3}{subsection.1.2}}
\citation{Kusic2009,Meisner2009}
\citation{Dhiman2008,Chen2009,Hanumaiah2009}
\citation{Arrubla2013}
\citation{Arrubla2013}
\citation{IPJ2009}
\citation{IPJ2009}
\citation{Arrubla2013}
\@writefile{lof}{\contentsline {figure}{\numberline {1}{\ignorespaces Data center description (SaaS) \citep  {IPJ2009}\relax }}{5}{figure.caption.2}}
\newlabel{fig:datacenter}{{1}{5}{Data center description (SaaS) \citep {IPJ2009}\relax }{figure.caption.2}{}}
\@writefile{toc}{\contentsline {section}{\numberline {2}System description and model introduction}{5}{section.2}}
\newlabel{sec:model}{{2}{5}{System description and model introduction}{section.2}{}}
\@writefile{toc}{\contentsline {subsection}{\numberline {2.1}Data center description}{5}{subsection.2.1}}
\newlabel{subsec:description}{{2.1}{5}{Data center description}{subsection.2.1}{}}
\@writefile{toc}{\contentsline {subsection}{\numberline {2.2}Mathematical formulation}{5}{subsection.2.2}}
\newlabel{subsec:formular}{{2.2}{5}{Mathematical formulation}{subsection.2.2}{}}
\@writefile{toc}{\contentsline {subsubsection}{\numberline {2.2.1}Notations}{5}{subsubsection.2.2.1}}
\newlabel{subsubsec:Notation}{{2.2.1}{5}{Notations}{subsubsection.2.2.1}{}}
\citation{Arrubla2013}
\@writefile{lot}{\contentsline {table}{\numberline {2}{\ignorespaces Notations corresponding to problem\relax }}{6}{table.caption.3}}
\newlabel{notation}{{2}{6}{Notations corresponding to problem\relax }{table.caption.3}{}}
\@writefile{toc}{\contentsline {subsubsection}{\numberline {2.2.2}MIP formulation}{6}{subsubsection.2.2.2}}
\newlabel{subsubsec:MIP}{{2.2.2}{6}{MIP formulation}{subsubsection.2.2.2}{}}
\citation{Arrubla2013}
\newlabel{obj}{{1}{7}{MIP formulation}{equation.2.1}{}}
\newlabel{const_02}{{2}{7}{MIP formulation}{equation.2.2}{}}
\newlabel{const_03}{{3}{7}{MIP formulation}{equation.2.3}{}}
\newlabel{const_04}{{4}{7}{MIP formulation}{equation.2.4}{}}
\newlabel{const_05}{{5}{7}{MIP formulation}{equation.2.5}{}}
\newlabel{const_06}{{6}{7}{MIP formulation}{equation.2.6}{}}
\newlabel{const_07}{{7}{7}{MIP formulation}{equation.2.7}{}}
\newlabel{const_08}{{8}{7}{MIP formulation}{equation.2.8}{}}
\newlabel{const_09}{{9}{7}{MIP formulation}{equation.2.9}{}}
\citation{EURO2006}
\citation{Arrubla2013}
\citation{MICE2001}
\@writefile{lof}{\contentsline {figure}{\numberline {2}{\ignorespaces Hourly recorded real workloads' traces for 20 applications for one day\relax }}{8}{figure.caption.4}}
\newlabel{real_workload}{{2}{8}{Hourly recorded real workloads' traces for 20 applications for one day\relax }{figure.caption.4}{}}
\@writefile{toc}{\contentsline {section}{\numberline {3}Solution methods}{8}{section.3}}
\newlabel{sec:method}{{3}{8}{Solution methods}{section.3}{}}
\@writefile{toc}{\contentsline {subsection}{\numberline {3.1}Algorithm for server clustering applying the Pareto principle}{8}{subsection.3.1}}
\newlabel{subsec:MIPmod2_clustering}{{3.1}{8}{Algorithm for server clustering applying the Pareto principle}{subsection.3.1}{}}
\@writefile{loa}{\contentsline {algocf}{\numberline {1}{\ignorespaces Server clustering applying the Pareto principle\relax }}{9}{algocf.1}}
\newlabel{pseudo3}{{1}{9}{Algorithm for server clustering applying the Pareto principle}{algocf.1}{}}
\@writefile{toc}{\contentsline {subsubsection}{\numberline {3.1.1}The two upper bounds for $N$}{9}{subsubsection.3.1.1}}
\newlabel{subsubsec:ub}{{3.1.1}{9}{The two upper bounds for $N$}{subsubsection.3.1.1}{}}
\citation{Arrubla2013,Verma2009}
\newlabel{eqn:upper1}{{10}{10}{The two upper bounds for $N$}{equation.3.10}{}}
\newlabel{eqn:upper2}{{11}{10}{The two upper bounds for $N$}{equation.3.11}{}}
\@writefile{toc}{\contentsline {subsection}{\numberline {3.2}Algorithms for server provisioning practices: powering on/off (MIP$_P$), and bang-bang control (MIP$_B$)}{10}{subsection.3.2}}
\newlabel{subsec:MIPmod1_pobb}{{3.2}{10}{Algorithms for server provisioning practices: powering on/off (MIP$_P$), and bang-bang control (MIP$_B$)}{subsection.3.2}{}}
\citation{Arrubla2013}
\@writefile{loa}{\contentsline {algocf}{\numberline {2}{\ignorespaces Powering on/off without DVFS\relax }}{11}{algocf.2}}
\newlabel{pseudo1}{{2}{11}{Algorithms for server provisioning practices: powering on/off (MIP$_P$), and bang-bang control (MIP$_B$)}{algocf.2}{}}
\@writefile{loa}{\contentsline {algocf}{\numberline {3}{\ignorespaces Bang-bang control\relax }}{11}{algocf.3}}
\newlabel{pseudo2}{{3}{11}{Algorithms for server provisioning practices: powering on/off (MIP$_P$), and bang-bang control (MIP$_B$)}{algocf.3}{}}
\@writefile{toc}{\contentsline {section}{\numberline {4}Experimental results}{11}{section.4}}
\newlabel{sec:expresult}{{4}{11}{Experimental results}{section.4}{}}
\@writefile{toc}{\contentsline {subsection}{\numberline {4.1}Setting}{11}{subsection.4.1}}
\newlabel{subsec:setup}{{4.1}{11}{Setting}{subsection.4.1}{}}
\citation{Arrubla2013}
\citation{Arrubla2013}
\citation{Chen2005,Horvath2007,Wierman2012}
\citation{Arrubla2013,Chen2005}
\newlabel{real}{{3(a)}{12}{Subfigure 3(a)}{subfigure.3.1}{}}
\newlabel{sub@real}{{(a)}{3(a)}{Subfigure 3(a)\relax }{subfigure.3.1}{}}
\newlabel{A20}{{3(b)}{12}{Subfigure 3(b)}{subfigure.3.2}{}}
\newlabel{sub@A20}{{(b)}{3(b)}{Subfigure 3(b)\relax }{subfigure.3.2}{}}
\newlabel{HHPOS}{{3(c)}{12}{Subfigure 3(c)}{subfigure.3.3}{}}
\newlabel{sub@HHPOS}{{(c)}{3(c)}{Subfigure 3(c)\relax }{subfigure.3.3}{}}
\newlabel{HLBOTH}{{3(d)}{12}{Subfigure 3(d)}{subfigure.3.4}{}}
\newlabel{sub@HLBOTH}{{(d)}{3(d)}{Subfigure 3(d)\relax }{subfigure.3.4}{}}
\newlabel{HLIND}{{3(e)}{12}{Subfigure 3(e)}{subfigure.3.5}{}}
\newlabel{sub@HLIND}{{(e)}{3(e)}{Subfigure 3(e)\relax }{subfigure.3.5}{}}
\newlabel{HLPOS}{{3(f)}{12}{Subfigure 3(f)}{subfigure.3.6}{}}
\newlabel{sub@HLPOS}{{(f)}{3(f)}{Subfigure 3(f)\relax }{subfigure.3.6}{}}
\newlabel{LHPOS}{{3(g)}{12}{Subfigure 3(g)}{subfigure.3.7}{}}
\newlabel{sub@LHPOS}{{(g)}{3(g)}{Subfigure 3(g)\relax }{subfigure.3.7}{}}
\newlabel{LLBOTH}{{3(h)}{12}{Subfigure 3(h)}{subfigure.3.8}{}}
\newlabel{sub@LLBOTH}{{(h)}{3(h)}{Subfigure 3(h)\relax }{subfigure.3.8}{}}
\newlabel{LLIND}{{3(i)}{12}{Subfigure 3(i)}{subfigure.3.9}{}}
\newlabel{sub@LLIND}{{(i)}{3(i)}{Subfigure 3(i)\relax }{subfigure.3.9}{}}
\newlabel{LLPOS}{{3(j)}{12}{Subfigure 3(j)}{subfigure.3.10}{}}
\newlabel{sub@LLPOS}{{(j)}{3(j)}{Subfigure 3(j)\relax }{subfigure.3.10}{}}
\@writefile{lof}{\contentsline {figure}{\numberline {3}{\ignorespaces Graphical representations of the workload instances\relax }}{12}{figure.caption.7}}
\newlabel{fig:instances}{{3}{12}{Graphical representations of the workload instances\relax }{figure.caption.7}{}}
\@writefile{lot}{\contentsline {table}{\numberline {3}{\ignorespaces Parameter values\relax }}{12}{table.caption.8}}
\newlabel{table:paramval}{{3}{12}{Parameter values\relax }{table.caption.8}{}}
\citation{Arrubla2013}
\citation{Arrubla2013}
\@writefile{lot}{\contentsline {table}{\numberline {4}{\ignorespaces Scaled processing capacity for each instance\relax }}{13}{table.caption.9}}
\newlabel{table:scaledcapacity}{{4}{13}{Scaled processing capacity for each instance\relax }{table.caption.9}{}}
\@writefile{toc}{\contentsline {subsection}{\numberline {4.2}Discussion}{14}{subsection.4.2}}
\newlabel{subsec:discussion}{{4.2}{14}{Discussion}{subsection.4.2}{}}
\@writefile{toc}{\contentsline {subsubsection}{\numberline {4.2.1}Comparison of the objective values}{14}{subsubsection.4.2.1}}
\newlabel{subsubsec:obj}{{4.2.1}{14}{Comparison of the objective values}{subsubsection.4.2.1}{}}
\@writefile{lot}{\contentsline {table}{\numberline {5}{\ignorespaces Objective values for the models throughout the instances\relax }}{14}{table.caption.10}}
\newlabel{table:summary}{{5}{14}{Objective values for the models throughout the instances\relax }{table.caption.10}{}}
\@writefile{lof}{\contentsline {figure}{\numberline {4}{\ignorespaces Graphical comparison of the objective values for the test instances\relax }}{15}{figure.caption.11}}
\newlabel{fig:summary}{{4}{15}{Graphical comparison of the objective values for the test instances\relax }{figure.caption.11}{}}
\@writefile{toc}{\contentsline {subsubsection}{\numberline {4.2.2}Interpreting the results}{15}{subsubsection.4.2.2}}
\newlabel{subsubsec:sol}{{4.2.2}{15}{Interpreting the results}{subsubsection.4.2.2}{}}
\newlabel{RF1}{16}
\@writefile{lot}{\contentsline {table}{\numberline {6}{\ignorespaces Sample of hourly workload traces ($\lambda _{it}$) (instance: HHPOS)\relax }}{16}{table.caption.12}}
\newlabel{table:HHPOS}{{6}{16}{Sample of hourly workload traces ($\lambda _{it}$) (instance: HHPOS)\relax }{table.caption.12}{}}
\@writefile{lot}{\contentsline {table}{\numberline {7}{\ignorespaces Time evolving frequency scaling of servers $(x_{jft})$ from MIP$_O$ (instance: HHPOS)\relax }}{17}{table.caption.13}}
\newlabel{table:xjft_hhpos}{{7}{17}{Time evolving frequency scaling of servers $(x_{jft})$ from MIP$_O$ (instance: HHPOS)\relax }{table.caption.13}{}}
\citation{Arrubla2013}
\newlabel{table:allocations}{{\caption@xref {table:allocations}{ on input line 538}}{18}{Interpreting the results}{table.caption.14}{}}
\@writefile{lot}{\contentsline {table}{\numberline {8}{\ignorespaces Allocation of applications to servers from MIP$_O$ and $\textrm  {MIP}_C$ (instance: REAL)\relax }}{18}{table.caption.14}}
\newlabel{table:allocations_a}{{8(a)}{18}{Subtable 8(a)}{subtable.8.1}{}}
\newlabel{sub@table:allocations_a}{{(a)}{8(a)}{Subtable 8(a)\relax }{subtable.8.1}{}}
\newlabel{table:allocations_b}{{8(b)}{18}{Subtable 8(b)}{subtable.8.2}{}}
\newlabel{sub@table:allocations_b}{{(b)}{8(b)}{Subtable 8(b)\relax }{subtable.8.2}{}}
\@writefile{lot}{\contentsline {table}{\numberline {9}{\ignorespaces Additional analysis on the server clustering\relax }}{18}{table.caption.15}}
\newlabel{table:analysis_data}{{9}{18}{Additional analysis on the server clustering\relax }{table.caption.15}{}}
\citation{Arrubla2013}
\citation{Arrubla2013}
\citation{Arrubla2013}
\citation{Arrubla2013}
\citation{Arrubla2013}
\@writefile{toc}{\contentsline {subsection}{\numberline {4.3}Answers to the three research questions}{19}{subsection.4.3}}
\newlabel{subsec:answer}{{4.3}{19}{Answers to the three research questions}{subsection.4.3}{}}
\@writefile{toc}{\contentsline {section}{\numberline {5}Conclusion}{19}{section.5}}
\newlabel{sec:conclusion}{{5}{19}{Conclusion}{section.5}{}}
\bibstyle{plainnat}
\bibcite{AMD1995}{{1}{}{{}}{{}}}
\bibcite{Anselmi2011}{{2}{}{{}}{{}}}
\bibcite{Barroso2009}{{3}{}{{}}{{}}}
\bibcite{Bertini2008}{{4}{}{{}}{{}}}
\bibcite{INTEL2012}{{5}{}{{}}{{}}}
\bibcite{Chen2005}{{6}{}{{}}{{}}}
\bibcite{Chen2009}{{7}{}{{}}{{}}}
\bibcite{CISCO2007}{{8}{}{{}}{{}}}
\bibcite{Dai2015}{{9}{}{{}}{{}}}
\bibcite{Dhiman2008}{{10}{}{{}}{{}}}
\bibcite{ADSC2011}{{11}{}{{}}{{}}}
\bibcite{Arrubla2013}{{12}{}{{}}{{}}}
\bibcite{MICE2001}{{13}{}{{}}{{}}}
\bibcite{Hanumaiah2009}{{14}{}{{}}{{}}}
\bibcite{Hillier2014}{{15}{}{{}}{{}}}
\bibcite{Horvath2007}{{16}{}{{}}{{}}}
\bibcite{io2014}{{17}{}{{}}{{}}}
\bibcite{INTELCERNlab.2008}{{18}{}{{}}{{}}}
\bibcite{Ko2014}{{19}{}{{}}{{}}}
\bibcite{Kramer2012}{{20}{}{{}}{{}}}
\bibcite{Kusic2009}{{21}{}{{}}{{}}}
\bibcite{Kwon2016}{{22}{}{{}}{{}}}
\bibcite{WOL2002}{{23}{}{{}}{{}}}
\bibcite{Meisner2009}{{24}{}{{}}{{}}}
\bibcite{Nrdc2014}{{25}{}{{}}{{}}}
\bibcite{SNOW2010}{{26}{}{{}}{{}}}
\bibcite{IPJ2009}{{27}{}{{}}{{}}}
\bibcite{Urgaonkar2007}{{28}{}{{}}{{}}}
\bibcite{Verma2009}{{29}{}{{}}{{}}}
\bibcite{Wierman2012}{{30}{}{{}}{{}}}
\bibcite{EURO2006}{{31}{}{{}}{{}}}
\providecommand\NAT@force@numbers{}\NAT@force@numbers
